Homework 3- Classification: Alternate techniques
…
# Extract and display a subset of 'spam_data' focusing on 'money', 'dollar', and 'yesno'.

set.seed(1000)
spam_data_edited <- as_tibble(spam_data) |>
  drop_na()

# Displays the first few rows of the 'spam_data_edited' dataset.
x <- spam_data_edited |> dplyr::select(money, dollar, yesno)
x

# A tibble: 4,601 × 3
   money dollar yesno
   <dbl>  <dbl> <chr>
 1  0     0     y    
 2  0.43  0.18  y    
 3  0.06  0.184 y    
 4  0     0     y    
 5  0     0     y    
 6  0     0     y    
 7  0     0.054 y    
 8  0     0     y    
 9  0.15  0.203 y    
10  0     0.081 y    
# ℹ 4,591 more rows
…
